module gitlab.com/siriusfreak/lecture-8-demo

go 1.15

require (
	github.com/Shopify/sarama v1.29.0
	github.com/golang/glog v0.0.0-20210429001901-424d2337a529
	github.com/golang/protobuf v1.5.2
	github.com/grpc-ecosystem/grpc-gateway v1.16.0
	github.com/grpc-ecosystem/grpc-gateway/v2 v2.5.0 // indirect
	gitlab.com/siriusfreak/lecture-8-demo/pkg/lecture-8-demo v0.0.0-00010101000000-000000000000
	google.golang.org/genproto v0.0.0-20210617175327-b9e0b3197ced
	google.golang.org/grpc v1.38.0
	google.golang.org/protobuf v1.26.0
)

replace gitlab.com/siriusfreak/lecture-8-demo/pkg/lecture-8-demo => ./pkg/lecture-8-demo
